\relax 
\providecommand\hyper@newdestlabel[2]{}
\providecommand\HyperFirstAtBeginDocument{\AtBeginDocument}
\HyperFirstAtBeginDocument{\ifx\hyper@anchor\@undefined
\global\let\oldcontentsline\contentsline
\gdef\contentsline#1#2#3#4{\oldcontentsline{#1}{#2}{#3}}
\global\let\oldnewlabel\newlabel
\gdef\newlabel#1#2{\newlabelxx{#1}#2}
\gdef\newlabelxx#1#2#3#4#5#6{\oldnewlabel{#1}{{#2}{#3}}}
\AtEndDocument{\ifx\hyper@anchor\@undefined
\let\contentsline\oldcontentsline
\let\newlabel\oldnewlabel
\fi}
\fi}
\global\let\hyper@last\relax 
\gdef\HyperFirstAtBeginDocument#1{#1}
\providecommand\HyField@AuxAddToFields[1]{}
\providecommand\HyField@AuxAddToCoFields[2]{}
\@writefile{toc}{\contentsline {section}{\numberline {1}Vectorial fermions in a Higgsed SU(2) gauge theory}{1}{section.1}}
\newlabel{masseigen}{{5}{1}{Vectorial fermions in a Higgsed SU(2) gauge theory}{equation.1.5}{}}
\@writefile{toc}{\contentsline {section}{\numberline {2}Lattice notation}{1}{section.2}}
\newlabel{psi_dirac}{{8}{2}{Lattice notation}{equation.2.8}{}}
\newlabel{chi_dirac}{{10}{2}{Lattice notation}{equation.2.10}{}}
\newlabel{yukawa}{{11}{2}{Lattice notation}{equation.2.11}{}}
\@writefile{toc}{\contentsline {section}{\numberline {3}Programs}{2}{section.3}}
\@writefile{toc}{\contentsline {subsection}{\numberline {3.1}Inverter}{2}{subsection.3.1}}
\newlabel{psi_dirac_index}{{12}{2}{Inverter}{equation.3.12}{}}
\newlabel{hopping}{{13}{2}{Inverter}{equation.3.13}{}}
\newlabel{multiindex}{{20}{4}{Inverter}{equation.3.20}{}}
\newlabel{diraccomp}{{21}{4}{Inverter}{equation.3.21}{}}
\newlabel{fullD}{{22}{4}{Inverter}{equation.3.22}{}}
\newlabel{dressing}{{25}{5}{Inverter}{equation.3.25}{}}
\@writefile{toc}{\contentsline {subsection}{\numberline {3.2}Reading the fields}{5}{subsection.3.2}}
\newlabel{fig1}{{3.1}{6}{Inverter}{equation.3.26}{}}
\@writefile{lof}{\contentsline {figure}{\numberline {1}{\ignorespaces Results for the dressing functions $A$ and $B$ on a $4^3\times 20$ lattice. The analytic results lie on top of the lattice results.}}{6}{figure.1}}
\@writefile{toc}{\contentsline {section}{\numberline {4}Observables and FMS}{7}{section.4}}
