\BOOKMARK [1][-]{section.1}{Vectorial fermions in a Higgsed SU\(2\) gauge theory}{}% 1
\BOOKMARK [1][-]{section.2}{Lattice notation}{}% 2
\BOOKMARK [1][-]{section.3}{Programs}{}% 3
\BOOKMARK [2][-]{subsection.3.1}{Inverter}{section.3}% 4
\BOOKMARK [2][-]{subsection.3.2}{Reading the fields}{section.3}% 5
\BOOKMARK [1][-]{section.4}{Observables and FMS}{}% 6
